<?xml version="1.0" encoding="UTF-8" standalone="no"?>
<svg
   xmlns:dc="http://purl.org/dc/elements/1.1/"
   xmlns:cc="http://creativecommons.org/ns#"
   xmlns:rdf="http://www.w3.org/1999/02/22-rdf-syntax-ns#"
   xmlns:svg="http://www.w3.org/2000/svg"
   xmlns="http://www.w3.org/2000/svg"
   xmlns:sodipodi="http://sodipodi.sourceforge.net/DTD/sodipodi-0.dtd"
   xmlns:inkscape="http://www.inkscape.org/namespaces/inkscape"
   width="282.55499"
   height="220.202"
   viewBox="0 0 74.759341 58.26178"
   version="1.1"
   id="svg8"
   inkscape:version="1.0.2-2 (e86c870879, 2021-01-15)"
   sodipodi:docname="Marketing_vertical_dark.svg"
   inkscape:export-filename="C:\Users\pc\Desktop\Fedora\Logos\Marketing_vertical_dark.png"
   inkscape:export-xdpi="96"
   inkscape:export-ydpi="96">
  <defs
     id="defs2" />
  <sodipodi:namedview
     id="base"
     pagecolor="#ffffff"
     bordercolor="#666666"
     borderopacity="1.0"
     inkscape:pageopacity="0.0"
     inkscape:pageshadow="2"
     inkscape:zoom="0.99"
     inkscape:cx="10.464868"
     inkscape:cy="145.29791"
     inkscape:document-units="mm"
     inkscape:current-layer="layer1"
     inkscape:document-rotation="0"
     showgrid="false"
     units="px"
     inkscape:snap-bbox="true"
     inkscape:window-width="1366"
     inkscape:window-height="705"
     inkscape:window-x="-8"
     inkscape:window-y="-8"
     inkscape:window-maximized="1" />
  <metadata
     id="metadata5">
    <rdf:RDF>
      <cc:Work
         rdf:about="">
        <dc:format>image/svg+xml</dc:format>
        <dc:type
           rdf:resource="http://purl.org/dc/dcmitype/StillImage" />
        <dc:title></dc:title>
      </cc:Work>
    </rdf:RDF>
  </metadata>
  <g
     inkscape:label="Layer 1"
     inkscape:groupmode="layer"
     id="layer1">
    <rect
       inkscape:export-ydpi="96"
       inkscape:export-xdpi="96"
       ry="2.9893851"
       rx="3.3022051"
       y="0"
       x="5.5122375e-05"
       height="58.261879"
       width="74.759232"
       id="rect1776"
       style="fill:#000000;fill-opacity:1;stroke:none;stroke-width:0.374454;stroke-linecap:round;stroke-linejoin:round;stroke-miterlimit:4;stroke-dasharray:none;stroke-dashoffset:0;stroke-opacity:1"
       inkscape:export-filename="/home/duffy/Cáipéisí/Work/Fedora/Tickets/620 - logo/2020 edits/Set 1/2020-19.png" />
    <text
       xml:space="preserve"
       style="font-style:normal;font-weight:normal;font-size:10.2469px;line-height:1.25;font-family:sans-serif;letter-spacing:0px;word-spacing:0px;fill:#51a2da;fill-opacity:1;stroke:none;stroke-width:0.256172"
       x="5.4835544"
       y="38.714005"
       id="text1780"><tspan
         sodipodi:role="line"
         id="tspan1778"
         x="5.4835544"
         y="38.714005"
         style="font-style:normal;font-variant:normal;font-weight:600;font-stretch:normal;font-family:Montserrat;-inkscape-font-specification:'Montserrat Semi-Bold';letter-spacing:-0.176087px;fill:#ffffff;fill-opacity:1;stroke-width:0.256172">MARKETING</tspan></text>
    <path
       id="path1787"
       style="fill:#51a2da;fill-opacity:1;fill-rule:nonzero;stroke:none;stroke-width:0.35278"
       d="m 37.380401,11.0282 c -4.08302,0 -7.39206,3.3079 -7.39472,7.38998 h -0.001 v 5.72414 h 0.001 c 0.001,0.92673 0.75284,1.67688 1.68005,1.67688 h 0.008 0.001 5.70837 c 4.08347,-0.002 7.39156,-3.31158 7.39156,-7.39472 0,-4.08484 -3.30985,-7.39628 -7.39471,-7.39628 z m 1.4988,3.0433 c 1.2419,0 2.41447,0.9516 2.41447,2.26318 0,0.12165 -4.6e-4,0.24343 -0.0205,0.3814 -0.0343,0.34896 -0.35253,0.59921 -0.69976,0.55003 -0.34721,-0.0498 -0.58275,-0.37849 -0.51851,-0.72339 0.006,-0.0393 0.008,-0.1018 0.008,-0.20804 0,-0.74364 -0.60812,-1.03072 -1.18359,-1.03072 -0.57512,0 -1.09396,0.48361 -1.09534,1.03072 0.01,0.63288 0,1.26121 0,1.89281 l 1.06697,-0.008 c 0.83334,-0.0173 0.84268,1.23882 0.009,1.23245 l -1.07643,0.008 c -0.004,0.50902 0.004,0.41659 0.001,0.67295 0,0 0.009,0.62177 -0.009,1.09377 -0.12882,1.38622 -1.30869,2.49484 -2.72652,2.49484 -1.50279,0 -2.74229,-1.22949 -2.74229,-2.73598 0.0451,-1.54978 1.28216,-2.76778 2.83842,-2.75331 l 0.86681,-0.006 v 1.23087 l -0.86681,0.008 h -0.006 c -0.85534,0.0252 -1.58723,0.6049 -1.60124,1.52086 0,0.83461 0.67448,1.50353 1.5114,1.50353 0.83554,0 1.50353,-0.60854 1.50353,-1.50195 0.01,-1.48161 -0.007,-3.11827 -10e-4,-4.65716 4.6e-4,-0.0865 0.005,-0.15521 0.0142,-0.25058 0.14109,-1.13936 1.16025,-2.00787 2.31362,-2.00787 z" />
    <path
       id="path1819"
       style="fill:#ffffff;fill-opacity:1;fill-rule:nonzero;stroke:none;stroke-width:0.343839"
       d="m 37.379669,11.028587 c -4.082683,0 -7.391462,3.307902 -7.394124,7.38999 h -0.0017 v 5.724124 h 0.0017 c 0.0019,0.926736 0.752779,1.676886 1.679909,1.676886 h 0.0079 0.0017 5.707911 c 4.083147,-0.0026 7.390972,-3.311585 7.390972,-7.394707 0,-4.084854 -3.309588,-7.396293 -7.394124,-7.396293 z m 1.498681,3.043312 c 1.241806,0 2.41428,0.951593 2.41428,2.263176 0,0.121641 -5.72e-4,0.243433 -0.02049,0.381389 -0.03437,0.348965 -0.352503,0.599227 -0.6997,0.550034 -0.347195,-0.04978 -0.582705,-0.378488 -0.51847,-0.72339 0.0058,-0.03937 0.0079,-0.101787 0.0079,-0.208033 0,-0.743638 -0.60808,-1.030729 -1.183501,-1.030729 -0.575072,0 -1.093879,0.483614 -1.095251,1.030729 0.01,0.632868 0,1.261206 0,1.892805 l 1.066885,-0.0081 c 0.833268,-0.01727 0.842612,1.238824 0.0095,1.232448 l -1.076341,0.0081 c -0.0028,0.509032 0.004,0.416596 0.0017,0.672968 0,0 0.0092,0.621764 -0.0095,1.093763 -0.128809,1.386233 -1.308588,2.494839 -2.726306,2.494839 -1.502666,0 -2.742067,-1.229488 -2.742067,-2.735972 0.04513,-1.549783 1.282062,-2.767787 2.838196,-2.753318 l 0.866746,-0.0064 v 1.230872 l -0.866746,0.0081 h -0.0063 c -0.855261,0.02527 -1.587108,0.604885 -1.601115,1.52086 0,0.834607 0.67443,1.503535 1.511289,1.503535 0.835471,0 1.503409,-0.608552 1.503409,-1.501954 0.0095,-1.481611 -0.0066,-3.118266 -0.0017,-4.657159 4.6e-4,-0.08647 0.0047,-0.155214 0.01418,-0.250584 0.141077,-1.139361 1.16015,-2.007865 2.313421,-2.007865 z" />
  </g>
</svg>
