<?xml version="1.0" encoding="UTF-8" standalone="no"?>
<svg
   xmlns:dc="http://purl.org/dc/elements/1.1/"
   xmlns:cc="http://creativecommons.org/ns#"
   xmlns:rdf="http://www.w3.org/1999/02/22-rdf-syntax-ns#"
   xmlns:svg="http://www.w3.org/2000/svg"
   xmlns="http://www.w3.org/2000/svg"
   xmlns:sodipodi="http://sodipodi.sourceforge.net/DTD/sodipodi-0.dtd"
   xmlns:inkscape="http://www.inkscape.org/namespaces/inkscape"
   width="545.77899"
   height="224"
   viewBox="0 0 144.40402 59.266667"
   version="1.1"
   id="svg83"
   inkscape:version="1.0.2-2 (e86c870879, 2021-01-15)"
   sodipodi:docname="Advocates_dark_blue.svg"
   inkscape:export-filename="C:\Users\pc\Desktop\Fedora\Logos\Advocates_dark_blue.png"
   inkscape:export-xdpi="96"
   inkscape:export-ydpi="96">
  <defs
     id="defs77" />
  <sodipodi:namedview
     id="base"
     pagecolor="#ffffff"
     bordercolor="#666666"
     borderopacity="1.0"
     inkscape:pageopacity="0.0"
     inkscape:pageshadow="2"
     inkscape:zoom="1.9"
     inkscape:cx="194.32581"
     inkscape:cy="87.398202"
     inkscape:document-units="mm"
     inkscape:current-layer="layer1"
     inkscape:document-rotation="0"
     showgrid="false"
     units="px"
     inkscape:window-width="1366"
     inkscape:window-height="705"
     inkscape:window-x="-8"
     inkscape:window-y="-8"
     inkscape:window-maximized="1"
     inkscape:snap-nodes="true"
     inkscape:snap-others="true" />
  <metadata
     id="metadata80">
    <rdf:RDF>
      <cc:Work
         rdf:about="">
        <dc:format>image/svg+xml</dc:format>
        <dc:type
           rdf:resource="http://purl.org/dc/dcmitype/StillImage" />
        <dc:title />
      </cc:Work>
    </rdf:RDF>
  </metadata>
  <g
     inkscape:label="Layer 1"
     inkscape:groupmode="layer"
     id="layer1">
    <rect
       inkscape:export-ydpi="96"
       inkscape:export-xdpi="96"
       ry="2.4178782"
       rx="2.242142"
       y="0"
       x="0"
       height="59.266666"
       width="144.40413"
       id="rect1560"
       style="fill:#000000;fill-opacity:1;stroke:none;stroke-width:0.524891;stroke-linecap:round;stroke-linejoin:round;stroke-miterlimit:4;stroke-dasharray:none;stroke-dashoffset:0;stroke-opacity:1"
       inkscape:export-filename="/home/duffy/Cáipéisí/Work/Fedora/Tickets/620 - logo/2020 edits/Set 1/2020-19.png" />
    <text
       id="text1568"
       y="33.753902"
       x="34.232574"
       style="font-style:normal;font-weight:normal;font-size:15.6113px;line-height:1.25;font-family:sans-serif;letter-spacing:0px;word-spacing:0px;fill:#51a2da;fill-opacity:1;stroke:none;stroke-width:0.390284;"
       xml:space="preserve"><tspan
         style="font-style:normal;font-variant:normal;font-weight:600;font-stretch:normal;font-family:Montserrat;-inkscape-font-specification:'Montserrat Semi-Bold';letter-spacing:-0.268273px;fill:#51a2da;fill-opacity:1;stroke-width:0.390284;"
         y="33.753902"
         x="34.232574"
         id="tspan1566"
         sodipodi:role="line">ADVOCATES</tspan></text>
    <path
       id="path1616-5"
       style="fill:#51a2da;fill-opacity:1;fill-rule:nonzero;stroke:none;stroke-width:0.238469"
       d="m 20.36042,18.233001 c -5.306451,0 -9.607022,4.299087 -9.610483,9.604337 h -0.002 v 7.439312 h 0.002 c 0.0027,1.204424 0.978421,2.179351 2.183455,2.179351 h 0.01028 0.002 7.418834 c 5.307053,-0.0034 9.60638,-4.303873 9.60638,-9.61047 0,-5.308846 -4.301619,-9.612531 -9.610476,-9.612531 z m 1.947899,3.955214 c 1.614038,0 3.137955,1.23673 3.137955,2.941319 0,0.158089 -6.76e-4,0.316375 -0.02663,0.495669 -0.04468,0.453529 -0.458166,0.77878 -0.909431,0.714845 -0.451266,-0.06469 -0.757372,-0.491897 -0.673883,-0.940147 0.0076,-0.05117 0.01028,-0.132287 0.01028,-0.270368 0,-0.966463 -0.790346,-1.339578 -1.538248,-1.339578 -0.747449,0 -1.421764,0.628524 -1.423549,1.339578 0.01291,0.822501 0,1.639115 0,2.459967 l 1.386682,-0.01048 c 1.083034,-0.02244 1.095175,1.610028 0.0123,1.60174 l -1.39897,0.01048 c -0.0034,0.661559 0.0054,0.541426 0.002,0.874619 0,0 0.0119,0.808069 -0.0123,1.421499 -0.167418,1.801606 -1.700832,3.242397 -3.54351,3.242397 -1.953084,0 -3.563985,-1.597894 -3.563985,-3.555784 0.05867,-2.014164 1.666351,-3.597132 3.688932,-3.578327 l 1.126547,-0.0084 v 1.599692 l -1.126547,0.01048 h -0.0082 c -1.111621,0.03285 -2.062835,0.786134 -2.081039,1.976573 0,1.08469 0.876587,1.954057 1.964286,1.954057 1.0859,0 1.954051,-0.790899 1.954051,-1.952002 0.01237,-1.925564 -0.0086,-4.052629 -0.002,-6.052638 5.95e-4,-0.112373 0.0061,-0.201723 0.01845,-0.325669 0.183364,-1.480762 1.507903,-2.609505 3.006856,-2.609505 z" />
  </g>
</svg>
