"Release","Council Candidates","Council Voters","FESCo Candidates","FESCo Voters","FESCo Candidates","FESCo Voters"
12,,,7,216,,
13,,,7,180,,
14,,,8,240,,
15,,,8,200,,
16,,,6,225,,
17,,,8,237,,
18,,,7,206,,
19,,,7,166,,
20,,,6,265,,
21,5,192,7,283,,
22,,,6,90,,
23,2,237,7,280,,
24,2,189,5,196,,
25,5,260,7,267,,
26,5,178,5,150,,
27,5,142,7,143,5,124
28,2,110,5,86,3,107
29,4,213,10,262,3,203
30,1,184,6,205,2,178
